{
  "api.name": "shop",
  "store.http.address": "store-microservice",
  "store.http.port": 8085,
  "host": "clear",
  "realm": "archer_application",
  "auth-server-url": "http://localhost:8080/auth",
  "ssl-required": "external",
  "resource": "store-services",
  "credentials": {
    "secret": "1f2be575-93b7-43a2-a98b-d9c9a04cc7d1"
  }
}